%YAML 1.1
%TAG !u! tag:unity3d.com,2011:
--- !u!1001 &8941895011162144953
PrefabInstance:
  m_ObjectHideFlags: 0
  serializedVersion: 2
  m_Modification:
    m_TransformParent: {fileID: 0}
    m_Modifications:
    - target: {fileID: 16481567110761735, guid: c7d2d3ce35171824d9c203c96973f08f,
        type: 3}
      propertyPath: value
      value: 1
      objectReference: {fileID: 0}
    - target: {fileID: 114043953472544698, guid: c7d2d3ce35171824d9c203c96973f08f,
        type: 3}
      propertyPath: m_EffectColor.r
      value: 0.8498808
      objectReference: {fileID: 0}
    - target: {fileID: 114043953472544698, guid: c7d2d3ce35171824d9c203c96973f08f,
        type: 3}
      propertyPath: m_EffectColor.g
      value: 1
      objectReference: {fileID: 0}
    - target: {fileID: 114043953472544698, guid: c7d2d3ce35171824d9c203c96973f08f,
        type: 3}
      propertyPath: m_EffectColor.b
      value: 0
      objectReference: {fileID: 0}
    - target: {fileID: 114043953472544698, guid: c7d2d3ce35171824d9c203c96973f08f,
        type: 3}
      propertyPath: m_EffectColor.a
      value: 1
      objectReference: {fileID: 0}
    - target: {fileID: 614961465603895438, guid: c7d2d3ce35171824d9c203c96973f08f,
        type: 3}
      propertyPath: m_SpriteTilingProperty.oldSize.x
      value: 0.66
      objectReference: {fileID: 0}
    - target: {fileID: 614961465603895438, guid: c7d2d3ce35171824d9c203c96973f08f,
        type: 3}
      propertyPath: m_SpriteTilingProperty.oldSize.y
      value: 1.46
      objectReference: {fileID: 0}
    - target: {fileID: 614961465603895438, guid: c7d2d3ce35171824d9c203c96973f08f,
        type: 3}
      propertyPath: m_Offset.y
      value: -0.10367465
      objectReference: {fileID: 0}
    - target: {fileID: 614961465603895438, guid: c7d2d3ce35171824d9c203c96973f08f,
        type: 3}
      propertyPath: m_Size.y
      value: 1.7467523
      objectReference: {fileID: 0}
    - target: {fileID: 614961465603895438, guid: c7d2d3ce35171824d9c203c96973f08f,
        type: 3}
      propertyPath: m_Offset.x
      value: 0.008616954
      objectReference: {fileID: 0}
    - target: {fileID: 614961465603895438, guid: c7d2d3ce35171824d9c203c96973f08f,
        type: 3}
      propertyPath: m_Size.x
      value: 0.9108612
      objectReference: {fileID: 0}
    - target: {fileID: 1726231035315550841, guid: c7d2d3ce35171824d9c203c96973f08f,
        type: 3}
      propertyPath: m_Sprite
      value: 
      objectReference: {fileID: 21300010, guid: af742907b864d8f4cbb57dab2cf6b39a,
        type: 3}
    - target: {fileID: 3650782559352600218, guid: c7d2d3ce35171824d9c203c96973f08f,
        type: 3}
      propertyPath: m_Name
      value: Ice cream
      objectReference: {fileID: 0}
    - target: {fileID: 4667596787945968913, guid: c7d2d3ce35171824d9c203c96973f08f,
        type: 3}
      propertyPath: m_LocalPosition.x
      value: 0
      objectReference: {fileID: 0}
    - target: {fileID: 4667596787945968913, guid: c7d2d3ce35171824d9c203c96973f08f,
        type: 3}
      propertyPath: m_LocalPosition.y
      value: 0
      objectReference: {fileID: 0}
    - target: {fileID: 4667596787945968913, guid: c7d2d3ce35171824d9c203c96973f08f,
        type: 3}
      propertyPath: m_LocalPosition.z
      value: 0
      objectReference: {fileID: 0}
    - target: {fileID: 4667596787945968913, guid: c7d2d3ce35171824d9c203c96973f08f,
        type: 3}
      propertyPath: m_LocalRotation.x
      value: 0
      objectReference: {fileID: 0}
    - target: {fileID: 4667596787945968913, guid: c7d2d3ce35171824d9c203c96973f08f,
        type: 3}
      propertyPath: m_LocalRotation.y
      value: 0
      objectReference: {fileID: 0}
    - target: {fileID: 4667596787945968913, guid: c7d2d3ce35171824d9c203c96973f08f,
        type: 3}
      propertyPath: m_LocalRotation.z
      value: 0
      objectReference: {fileID: 0}
    - target: {fileID: 4667596787945968913, guid: c7d2d3ce35171824d9c203c96973f08f,
        type: 3}
      propertyPath: m_LocalRotation.w
      value: 1
      objectReference: {fileID: 0}
    - target: {fileID: 4667596787945968913, guid: c7d2d3ce35171824d9c203c96973f08f,
        type: 3}
      propertyPath: m_RootOrder
      value: 0
      objectReference: {fileID: 0}
    - target: {fileID: 4667596787945968913, guid: c7d2d3ce35171824d9c203c96973f08f,
        type: 3}
      propertyPath: m_LocalEulerAnglesHint.x
      value: 0
      objectReference: {fileID: 0}
    - target: {fileID: 4667596787945968913, guid: c7d2d3ce35171824d9c203c96973f08f,
        type: 3}
      propertyPath: m_LocalEulerAnglesHint.y
      value: 0
      objectReference: {fileID: 0}
    - target: {fileID: 4667596787945968913, guid: c7d2d3ce35171824d9c203c96973f08f,
        type: 3}
      propertyPath: m_LocalEulerAnglesHint.z
      value: 0
      objectReference: {fileID: 0}
    m_RemovedComponents:
    - {fileID: 114043953472544698, guid: c7d2d3ce35171824d9c203c96973f08f, type: 3}
  m_SourcePrefab: {fileID: 100100000, guid: c7d2d3ce35171824d9c203c96973f08f, type: 3}
