%YAML 1.1
%TAG !u! tag:unity3d.com,2011:
--- !u!114 &11400000
MonoBehaviour:
  m_ObjectHideFlags: 0
  m_CorrespondingSourceObject: {fileID: 0}
  m_PrefabInstance: {fileID: 0}
  m_PrefabAsset: {fileID: 0}
  m_GameObject: {fileID: 0}
  m_Enabled: 1
  m_EditorHideFlags: 0
  m_Script: {fileID: 11500000, guid: ae0543fe805424df99fe08ce744cbe49, type: 3}
  m_Name: base.rocket
  m_EditorClassIdentifier: 
  m_PoseEntries:
  - path: Bones/head
    localPosition: {x: 0, y: 0, z: 0}
    localRotation: {x: 0, y: 0, z: 0.609047, w: -0.7931342}
    localScale: {x: 1, y: 1, z: 1}
  - path: Bones/head/hair R 1
    localPosition: {x: 0.17497809, y: 0.16325755, z: 0}
    localRotation: {x: 0, y: 0, z: 0.023482025, w: 0.9997243}
    localScale: {x: 1, y: 1, z: 1}
  - path: Bones/head/hair R 1/hair R 2
    localPosition: {x: 0.30000007, y: 0.000000059604645, z: 0}
    localRotation: {x: 0, y: 0, z: 0, w: 1}
    localScale: {x: 1, y: 1, z: 1}
  - path: Bones/head/hair L 1
    localPosition: {x: 0.16509901, y: -0.18847571, z: 0}
    localRotation: {x: 0, y: 0, z: -0.02714782, w: 0.99963146}
    localScale: {x: 1, y: 1, z: 1}
  - path: Bones/head/hair L 1/hair L 2
    localPosition: {x: 0.30000013, y: -0.00000013411045, z: 0}
    localRotation: {x: 0, y: 0, z: 0, w: 1}
    localScale: {x: 1, y: 1, z: 1}
  - path: Bones/head/bang L 1
    localPosition: {x: 0.06478308, y: -0.32534137, z: 0}
    localRotation: {x: 0, y: 0, z: -0.8272842, w: 0.5617837}
    localScale: {x: 1, y: 1, z: 1}
  - path: Bones/head/bang L 1/bang L 2
    localPosition: {x: 0.19999996, y: 0.000000014901161, z: 0}
    localRotation: {x: 0, y: 0, z: -0.08198381, w: 0.9966337}
    localScale: {x: 1, y: 1, z: 1}
  - path: 'Bones/head/bang R 1 '
    localPosition: {x: 0.07682672, y: 0.3371424, z: 0}
    localRotation: {x: 0, y: 0, z: -0.81601477, w: -0.5780312}
    localScale: {x: 1, y: 1, z: 1}
  - path: Bones/head/bang R 1 /bang R 2
    localPosition: {x: 0.20000017, y: -0.000000059604645, z: 0}
    localRotation: {x: 0, y: 0, z: -0.0062482376, w: 0.9999805}
    localScale: {x: 1, y: 1, z: 1}
  - path: Bones/head/Arm R
    localPosition: {x: 0.091286786, y: 0.5929243, z: 0}
    localRotation: {x: 0, y: 0, z: 0.73208845, w: 0.68120956}
    localScale: {x: 1, y: 1, z: 1}
  - path: Bones/head/Arm L
    localPosition: {x: -0.068300515, y: -0.6087644, z: 0}
    localRotation: {x: 0, y: 0, z: -0.8668285, w: 0.49860653}
    localScale: {x: 1, y: 1, z: 1}
