%YAML 1.1
%TAG !u! tag:unity3d.com,2011:
--- !u!1 &6774637319238869586
GameObject:
  m_ObjectHideFlags: 0
  m_CorrespondingSourceObject: {fileID: 0}
  m_PrefabInstance: {fileID: 0}
  m_PrefabAsset: {fileID: 0}
  serializedVersion: 6
  m_Component:
  - component: {fileID: 6774637319238869589}
  - component: {fileID: 6774637319238869588}
  - component: {fileID: 60297164842961266}
  m_Layer: 0
  m_Name: Bump
  m_TagString: "Ch\xE3o"
  m_Icon: {fileID: 0}
  m_NavMeshLayer: 0
  m_StaticEditorFlags: 0
  m_IsActive: 1
--- !u!4 &6774637319238869589
Transform:
  m_ObjectHideFlags: 0
  m_CorrespondingSourceObject: {fileID: 0}
  m_PrefabInstance: {fileID: 0}
  m_PrefabAsset: {fileID: 0}
  m_GameObject: {fileID: 6774637319238869586}
  m_LocalRotation: {x: 0, y: 0, z: 0, w: 1}
  m_LocalPosition: {x: 0, y: 0, z: 0}
  m_LocalScale: {x: 4, y: 4, z: 1}
  m_Children: []
  m_Father: {fileID: 0}
  m_RootOrder: 0
  m_LocalEulerAnglesHint: {x: 0, y: 0, z: 0}
--- !u!212 &6774637319238869588
SpriteRenderer:
  m_ObjectHideFlags: 0
  m_CorrespondingSourceObject: {fileID: 0}
  m_PrefabInstance: {fileID: 0}
  m_PrefabAsset: {fileID: 0}
  m_GameObject: {fileID: 6774637319238869586}
  m_Enabled: 1
  m_CastShadows: 0
  m_ReceiveShadows: 0
  m_DynamicOccludee: 1
  m_MotionVectors: 1
  m_LightProbeUsage: 1
  m_ReflectionProbeUsage: 1
  m_RenderingLayerMask: 1
  m_RendererPriority: 0
  m_Materials:
  - {fileID: 10754, guid: 0000000000000000f000000000000000, type: 0}
  m_StaticBatchInfo:
    firstSubMesh: 0
    subMeshCount: 0
  m_StaticBatchRoot: {fileID: 0}
  m_ProbeAnchor: {fileID: 0}
  m_LightProbeVolumeOverride: {fileID: 0}
  m_ScaleInLightmap: 1
  m_PreserveUVs: 0
  m_IgnoreNormalsForChartDetection: 0
  m_ImportantGI: 0
  m_StitchLightmapSeams: 0
  m_SelectedEditorRenderState: 0
  m_MinimumChartSize: 4
  m_AutoUVMaxDistance: 0.5
  m_AutoUVMaxAngle: 89
  m_LightmapParameters: {fileID: 0}
  m_SortingLayerID: 0
  m_SortingLayer: 0
  m_SortingOrder: 10
  m_Sprite: {fileID: 21300000, guid: 83097e4c1f01279459ad1cbd325b7e7e, type: 3}
  m_Color: {r: 0.2710039, g: 0.30752718, b: 0.3962264, a: 1}
  m_FlipX: 0
  m_FlipY: 0
  m_DrawMode: 0
  m_Size: {x: 22.199999, y: 10.8}
  m_AdaptiveModeThreshold: 0.5
  m_SpriteTileMode: 0
  m_WasSpriteAssigned: 1
  m_MaskInteraction: 0
  m_SpriteSortPoint: 0
--- !u!60 &60297164842961266
PolygonCollider2D:
  m_ObjectHideFlags: 0
  m_CorrespondingSourceObject: {fileID: 0}
  m_PrefabInstance: {fileID: 0}
  m_PrefabAsset: {fileID: 0}
  m_GameObject: {fileID: 6774637319238869586}
  m_Enabled: 1
  m_Density: 1
  m_Material: {fileID: 0}
  m_IsTrigger: 0
  m_UsedByEffector: 0
  m_UsedByComposite: 0
  m_Offset: {x: 0, y: 0}
  m_SpriteTilingProperty:
    border: {x: 0, y: 0, z: 0, w: 0}
    pivot: {x: 0.5, y: 0.5}
    oldSize: {x: 22.199999, y: 10.8}
    newSize: {x: 22.199999, y: 10.8}
    adaptiveTilingThreshold: 0.5
    drawMode: 0
    adaptiveTiling: 0
  m_AutoTiling: 0
  m_Points:
    m_Paths:
    - - {x: 9.4987955, y: -4.966265}
      - {x: 9.368675, y: -4.890362}
      - {x: 9.292771, y: -4.846988}
      - {x: 9.086747, y: -4.727711}
      - {x: 8.93494, y: -4.640964}
      - {x: 8.598796, y: -4.445783}
      - {x: 8.295181, y: -4.2722893}
      - {x: 7.9590364, y: -4.0771084}
      - {x: 7.807229, y: -3.9903617}
      - {x: 7.546988, y: -3.8385544}
      - {x: 7.16747, y: -3.621687}
      - {x: 7.0373497, y: -3.5457833}
      - {x: 6.8313255, y: -3.426506}
      - {x: 6.679518, y: -3.339759}
      - {x: 6.419277, y: -3.1879518}
      - {x: 6.26747, y: -3.1012049}
      - {x: 6.061446, y: -2.9927711}
      - {x: 5.9855423, y: -2.9385543}
      - {x: 5.779518, y: -2.8192773}
      - {x: 5.627711, y: -2.73253}
      - {x: 5.4975905, y: -2.6566267}
      - {x: 5.2915664, y: -2.5373495}
      - {x: 4.933735, y: -2.3313253}
      - {x: 4.706024, y: -2.2012048}
      - {x: 4.575904, y: -2.1253014}
      - {x: 3.9578314, y: -1.7674699}
      - {x: 3.5783134, y: -1.5506024}
      - {x: 3.3722892, y: -1.4313253}
      - {x: 3.1120484, y: -1.2795181}
      - {x: 2.9385543, y: -1.1819278}
      - {x: 2.8301206, y: -1.1168675}
      - {x: 2.6024098, y: -0.986747}
      - {x: 2.4722893, y: -0.9108434}
      - {x: 2.2445784, y: -0.7807229}
      - {x: 2.1144578, y: -0.7048193}
      - {x: 1.7024097, y: -0.46626508}
      - {x: 1.6048193, y: -0.41204822}
      - {x: 1.3445784, y: -0.26024097}
      - {x: 1.2469879, y: -0.20602411}
      - {x: 1.0951807, y: -0.11927711}
      - {x: 0.8349398, y: 0.03253012}
      - {x: 0.6831325, y: 0.11927711}
      - {x: 0.47710845, y: 0.22771084}
      - {x: 0.4228916, y: 0.27108434}
      - {x: 0.2493976, y: 0.3686747}
      - {x: 0.043373495, y: 0.48795182}
      - {x: -0.08674699, y: 0.5638554}
      - {x: -0.2927711, y: 0.6831325}
      - {x: -0.5746988, y: 0.8457832}
      - {x: -0.6939759, y: 0.92168677}
      - {x: -0.7698795, y: 0.986747}
      - {x: -0.8674699, y: 1.0951807}
      - {x: -0.9650603, y: 1.2361447}
      - {x: -1.0843374, y: 1.4638555}
      - {x: -1.0843374, y: 1.4855422}
      - {x: -1.1710844, y: 1.7240964}
      - {x: -1.2036145, y: 1.8108435}
      - {x: -1.2361447, y: 1.9084338}
      - {x: -1.2795181, y: 2.027711}
      - {x: -1.3228916, y: 2.1361446}
      - {x: -1.3987952, y: 2.3421688}
      - {x: -1.4530121, y: 2.4180725}
      - {x: -1.5180724, y: 2.5590363}
      - {x: -1.6048193, y: 2.6891568}
      - {x: -1.6915663, y: 2.7975905}
      - {x: -1.8433735, y: 2.9385543}
      - {x: -1.9192772, y: 3.0036147}
      - {x: -2.1578314, y: 3.1228917}
      - {x: -2.287952, y: 3.1554217}
      - {x: -2.3963857, y: 3.1771085}
      - {x: -2.5048194, y: 3.1879518}
      - {x: -2.7108436, y: 3.1879518}
      - {x: -2.8409638, y: 3.1771085}
      - {x: -3.0253012, y: 3.1554217}
      - {x: -3.2530122, y: 3.1228917}
      - {x: -3.339759, y: 3.1120484}
      - {x: -3.4048195, y: 3.1012049}
      - {x: -3.5024097, y: 3.0903616}
      - {x: -3.5132532, y: 3.079518}
      - {x: -3.9361446, y: 3.0578315}
      - {x: -3.946988, y: 3.0686748}
      - {x: -4.1096387, y: 3.079518}
      - {x: -4.3373494, y: 3.1120484}
      - {x: -4.521687, y: 3.1554217}
      - {x: -4.6843376, y: 3.220482}
      - {x: -4.8036146, y: 3.2855422}
      - {x: -4.933735, y: 3.361446}
      - {x: -5.085542, y: 3.4373496}
      - {x: -5.139759, y: 3.480723}
      - {x: -5.3132534, y: 3.5783134}
      - {x: -5.3674703, y: 3.6108434}
      - {x: -5.519277, y: 3.6975906}
      - {x: -5.9530125, y: 3.946988}
      - {x: -6.115663, y: 4.0445786}
      - {x: -6.419277, y: 4.2180724}
      - {x: -6.603615, y: 4.315663}
      - {x: -6.679518, y: 4.3698797}
      - {x: -6.755422, y: 4.4132533}
      - {x: -7.113253, y: 4.6192775}
      - {x: -7.243374, y: 4.695181}
      - {x: -7.395181, y: 4.781928}
      - {x: -7.753012, y: 4.9879518}
      - {x: -7.883133, y: 5.0638556}
      - {x: -8.240964, y: 5.26988}
      - {x: -8.446988, y: 5.389157}
      - {x: -8.479518, y: 5.4}
      - {x: -11.103615, y: 5.4}
      - {x: -11.103615, y: 2.5481927}
      - {x: -11.038554, y: 2.5048194}
      - {x: -10.626507, y: 2.2662652}
      - {x: -10.398795, y: 2.1361446}
      - {x: -10.268675, y: 2.060241}
      - {x: -10.040964, y: 1.9301206}
      - {x: -9.8566265, y: 1.8325301}
      - {x: -9.780724, y: 1.7783133}
      - {x: -9.401205, y: 1.5614458}
      - {x: -9.271085, y: 1.4855422}
      - {x: -8.446988, y: 1.0084338}
      - {x: -8.067471, y: 0.7915663}
      - {x: -7.93735, y: 0.71566266}
      - {x: -7.7313256, y: 0.59638554}
      - {x: -7.0915666, y: 0.22771084}
      - {x: -6.9397593, y: 0.14096385}
      - {x: -6.809639, y: 0.06506024}
      - {x: -6.3975906, y: -0.17349398}
      - {x: -5.8662653, y: -0.47710845}
      - {x: -5.4325304, y: -0.72650605}
      - {x: -5.226506, y: -0.8349398}
      - {x: -5.1506023, y: -0.88915664}
      - {x: -5.0530124, y: -0.9433735}
      - {x: -4.5975904, y: -1.2036145}
      - {x: -4.3915663, y: -1.3228916}
      - {x: -4.0228915, y: -1.539759}
      - {x: -3.5024097, y: -1.8433735}
      - {x: -3.2963858, y: -1.9626507}
      - {x: -3.014458, y: -2.1253014}
      - {x: -2.8843374, y: -2.2012048}
      - {x: -2.7108436, y: -2.2987952}
      - {x: -2.6024098, y: -2.3638556}
      - {x: -2.3746989, y: -2.4939759}
      - {x: -2.2445784, y: -2.5698795}
      - {x: -2.0168676, y: -2.7}
      - {x: -1.7566266, y: -2.8518074}
      - {x: -1.3771085, y: -3.0686748}
      - {x: -1.2469879, y: -3.1445785}
      - {x: -1.0409639, y: -3.2638555}
      - {x: -0.88915664, y: -3.3506026}
      - {x: -0.62891567, y: -3.5024097}
      - {x: -0.043373495, y: -3.8385544}
      - {x: 0.16265061, y: -3.9578314}
      - {x: 0.2927711, y: -4.0337353}
      - {x: 0.4987952, y: -4.1530123}
      - {x: 0.8566265, y: -4.3590364}
      - {x: 1.0843374, y: -4.4891567}
      - {x: 1.2144579, y: -4.5650606}
      - {x: 1.8325301, y: -4.9228916}
      - {x: 2.2120483, y: -5.139759}
      - {x: 2.4180725, y: -5.2590365}
      - {x: 2.66747, y: -5.4}
      - {x: 10.203615, y: -5.4}
      - {x: 10.192771, y: -5.3674703}
      - {x: 9.93253, y: -5.215663}
      - {x: 9.726506, y: -5.0963855}
